<svg width="91" height="16" viewBox="0 0 91 16" fill="none" xmlns="http://www.w3.org/2000/svg">
<g clip-path="url(#clip0_126_12016)">
<path d="M3.74941 5.70422C3.58353 5.52126 3.33471 5.53792 3.2186 5.75411L0.531339 11.1586C0.431811 11.3748 0.581103 11.6243 0.813335 11.6243H4.56223C4.67834 11.6243 4.79446 11.5578 4.84422 11.4414C5.67362 9.76179 5.17598 7.21746 3.74941 5.70422Z" fill="url(#paint0_linear_126_12016)"/>
<path d="M5.72337 0.781904C4.21388 3.17654 4.31341 5.82062 5.30868 7.81613C6.30398 9.81168 7.067 11.3249 7.1168 11.4413C7.16655 11.5578 7.28268 11.6243 7.39875 11.6243H11.1476C11.3799 11.6243 11.5458 11.3748 11.4296 11.1586C11.4296 11.1586 6.38692 1.04797 6.25418 0.798533C6.17125 0.565721 5.87268 0.549092 5.72337 0.781904Z" fill="#2684FF"/>
<path d="M56.6816 8.94695C56.6816 7.36715 55.8356 6.61881 53.4799 6.10331C52.1696 5.82062 51.8543 5.52127 51.8543 5.10555C51.8543 4.59004 52.3191 4.35723 53.1817 4.35723C54.2267 4.35723 55.255 4.67319 56.2339 5.12218V3.04351C55.5536 2.69429 54.492 2.42822 53.2477 2.42822C50.9091 2.42822 49.698 3.44262 49.698 5.12218C49.698 6.45252 50.3119 7.51682 52.7336 7.98242C54.1768 8.28178 54.4754 8.51458 54.4754 8.99684C54.4754 9.46244 54.1768 9.76179 53.1485 9.76179C51.9707 9.76179 50.5607 9.3627 49.6482 8.81393V10.9923C50.3783 11.3582 51.3402 11.7573 53.1319 11.7573C55.6699 11.7573 56.6816 10.6265 56.6816 8.94695Z" fill="#0052CC"/>
<path d="M82.1941 2.56125V11.6243H84.1182V4.72307L84.931 6.5523L87.6513 11.6243H90.0735V2.56125H88.1493V8.41479L87.4192 6.71859L85.2296 2.56125H82.1941Z" fill="#0052CC"/>
<path d="M69.969 2.56125H67.8621V11.6077H69.969V2.56125Z" fill="#0052CC"/>
<path d="M65.4238 8.94695C65.4238 7.36715 64.5778 6.61881 62.2221 6.10331C60.9118 5.82062 60.5965 5.52127 60.5965 5.10555C60.5965 4.59004 61.0613 4.35723 61.9235 4.35723C62.9688 4.35723 63.9971 4.67319 64.9761 5.12218V3.04351C64.2958 2.69429 63.2342 2.42822 61.9899 2.42822C59.6513 2.42822 58.4402 3.44262 58.4402 5.12218C58.4402 6.45252 59.0541 7.51682 61.4758 7.98242C62.919 8.28178 63.2176 8.51458 63.2176 8.99684C63.2176 9.46244 62.919 9.76179 61.8907 9.76179C60.7128 9.76179 59.3028 9.3627 58.3904 8.81393V10.9923C59.1201 11.3582 60.0824 11.7573 61.8741 11.7573C64.4282 11.7573 65.4238 10.6265 65.4238 8.94695Z" fill="#0052CC"/>
<path d="M33.3755 2.56125V11.6243H37.6884L38.3685 9.662H35.4822V2.56125H33.3755Z" fill="#0052CC"/>
<path d="M24.8328 2.56161V4.52389H27.1717V11.6247H29.2783V4.52389H31.7831V2.56161H24.8328Z" fill="#0052CC"/>
<path d="M21.764 2.56161H18.9938L15.842 11.608H18.2473L18.6952 10.0781C19.226 10.2278 19.79 10.3276 20.3872 10.3276C20.9677 10.3276 21.5318 10.2444 22.0791 10.0781L22.527 11.608H24.9323L21.764 2.56161ZM20.3706 8.46506C19.9725 8.46506 19.5744 8.39855 19.2094 8.29877L20.3706 4.34096L21.5317 8.29877C21.1668 8.39855 20.7853 8.46506 20.3706 8.46506Z" fill="#0052CC"/>
<path d="M45.1531 2.56125H42.3829L39.2312 11.6077H41.6365L42.0843 10.0778C42.6152 10.2274 43.1792 10.3272 43.7763 10.3272C44.3569 10.3272 44.9209 10.2441 45.4683 10.0778L45.9162 11.6077H48.3214L45.1531 2.56125ZM43.7597 8.46468C43.3616 8.46468 42.9635 8.39817 42.5986 8.29839L43.7597 4.34059L44.9209 8.29839C44.556 8.39817 44.1578 8.46468 43.7597 8.46468Z" fill="#0052CC"/>
<path d="M77.5331 2.56125H74.7625L71.6111 11.6077H74.0162L74.4639 10.0778C74.9951 10.2274 75.5591 10.3272 76.1559 10.3272C76.7365 10.3272 77.3005 10.2441 77.8479 10.0778L78.296 11.6077H80.7011L77.5331 2.56125ZM76.1559 8.46468C75.758 8.46468 75.3597 8.39817 74.9951 8.29839L76.1559 4.34059L77.3171 8.29839C76.9358 8.39817 76.5542 8.46468 76.1559 8.46468Z" fill="#0052CC"/>
</g>
<defs>
<linearGradient id="paint0_linear_126_12016" x1="5.23188" y1="6.53083" x2="2.37949" y2="11.459" gradientUnits="userSpaceOnUse">
<stop stop-color="#0052CC"/>
<stop offset="0.9228" stop-color="#2684FF"/>
</linearGradient>
<clipPath id="clip0_126_12016">
<rect width="90" height="14.7692" fill="white" transform="translate(0.5 0.615387)"/>
</clipPath>
</defs>
</svg>
