<svg width="52" height="48" viewBox="0 0 52 48" fill="none" xmlns="http://www.w3.org/2000/svg">
<g clip-path="url(#clip0_372_9823)">
<path d="M26.3602 16.0913V11.9295C26.5585 11.7087 26.8018 11.531 27.0745 11.4077C27.3471 11.2844 27.6431 11.2182 27.9433 11.2134C28.0987 11.2089 28.2541 11.2221 28.4063 11.2526V9.63596C28.0125 9.65286 27.6268 9.75077 27.2742 9.92329C26.9217 10.0958 26.6104 10.3391 26.3602 10.6373V9.79259H24.6456V16.0913H26.3602Z" fill="#29B473"/>
<path d="M15.4269 6.68237V18.6421L26.0001 24.6219L36.5733 18.6421V7.30888L33.9786 8.77447V17.1764L26.0001 21.6852L18.0216 17.1764V8.15355L25.5029 3.92458V0.987793L15.4269 6.68237Z" fill="#171321"/>
<path d="M26.5374 0.987793V3.92458L33.5613 7.89624L36.1561 6.43064L26.5374 0.987793Z" fill="#29B473"/>
<path d="M16.281 33.1821V29.0112C16.281 27.7967 15.6542 27.1097 14.4005 27.1097C13.4844 27.1097 12.7248 27.5881 12.3391 28.0544V27.2569H11.0733V33.1821H12.3391V29.0357C12.6405 28.6431 13.195 28.2506 13.8339 28.2506C14.5452 28.2506 15.0152 28.545 15.0152 29.4774V33.1821H16.281Z" fill="black"/>
<path d="M20.3842 33.3293C21.3003 33.3293 22.1562 33.0226 22.7468 32.4583L22.1683 31.6118C21.7464 32.0412 21.0832 32.2743 20.5047 32.2743C19.4077 32.2743 18.7566 31.526 18.6602 30.6427H23.1447V30.3237C23.1447 28.4591 22.0357 27.1097 20.2876 27.1097C18.5638 27.1097 17.3342 28.4959 17.3342 30.2134C17.3342 32.0902 18.624 33.3293 20.3842 33.3293ZM21.9271 29.7227H18.6482C18.6964 29.0112 19.2027 28.1647 20.2756 28.1647C21.4208 28.1647 21.891 29.0235 21.9271 29.7227Z" fill="black"/>
<path d="M29.2642 33.1821L27.1185 30.1398L29.1316 27.2569H27.7092L26.3229 29.2565L24.9487 27.2569H23.5261L25.5393 30.1398L23.3935 33.1821H24.8161L26.335 30.9984L27.8418 33.1821H29.2642Z" fill="black"/>
<path d="M35.0998 33.1821V27.2569H33.834V31.4155C33.5446 31.8081 32.9901 32.1883 32.3512 32.1883C31.6279 32.1883 31.1698 31.894 31.1698 30.9739V27.2569H29.9041V31.4523C29.9041 32.6546 30.5309 33.3293 31.7846 33.3293C32.7008 33.3293 33.4241 32.863 33.834 32.397V33.1821H35.0998Z" fill="black"/>
<path d="M38.5039 33.3293C40.071 33.3293 40.9269 32.5319 40.9269 31.4768C40.9269 29.1216 37.4068 29.9067 37.4068 28.864C37.4068 28.4469 37.8167 28.1279 38.4798 28.1279C39.2151 28.1279 39.8541 28.4469 40.2036 28.8394L40.734 27.9316C40.2157 27.4655 39.4683 27.1097 38.4798 27.1097C37.009 27.1097 36.1893 27.9316 36.1893 28.9007C36.1893 31.1825 39.7094 30.3484 39.7094 31.5137C39.7094 31.9799 39.3116 32.2988 38.5521 32.2988C37.8047 32.2988 36.997 31.9062 36.5871 31.4768L36.0085 32.3969C36.6112 32.998 37.5033 33.3293 38.5039 33.3293Z" fill="black"/>
<path d="M1.75517 44.7651V40.9933C2.00618 40.592 2.7114 40.2481 3.24928 40.2481C3.40466 40.2481 3.5242 40.2595 3.63177 40.2826V39.0901C2.89069 39.0901 2.19743 39.5029 1.75517 40.0303V39.2277H0.500122V44.7651H1.75517Z" fill="#29B473"/>
<path d="M7.0823 44.9027C7.99071 44.9027 8.83937 44.6161 9.42506 44.0888L8.85132 43.2977C8.43297 43.6989 7.77557 43.9167 7.20183 43.9167C6.11411 43.9167 5.46866 43.2174 5.37304 42.392H9.8195V42.0939C9.8195 40.3513 8.71984 39.0901 6.98667 39.0901C5.27741 39.0901 4.05823 40.3857 4.05823 41.9907C4.05823 43.7448 5.33718 44.9027 7.0823 44.9027ZM8.61227 41.5322H5.36109C5.40889 40.8672 5.91092 40.0762 6.97472 40.0762C8.11024 40.0762 8.5764 40.8786 8.61227 41.5322Z" fill="#29B473"/>
<path d="M13.9271 44.9027C15.4211 44.9027 16.4849 43.8136 16.4849 41.9907C16.4849 40.1679 15.4211 39.0901 13.9271 39.0901C13.174 39.0901 12.5046 39.4341 12.0743 39.9844V39.2277H10.8193V46.8746H12.0743V43.997C12.5524 44.5817 13.1979 44.9027 13.9271 44.9027ZM13.5565 43.8365C12.9708 43.8365 12.3492 43.4926 12.0743 43.0798V40.8901C12.3612 40.4773 12.9708 40.1564 13.5565 40.1564C14.5485 40.1564 15.194 40.9131 15.194 41.9907C15.194 43.0684 14.5485 43.8365 13.5565 43.8365Z" fill="#29B473"/>
<path d="M20.1198 44.9027C21.9606 44.9027 23.0841 43.5728 23.0841 41.9907C23.0841 40.3971 21.9606 39.0901 20.1198 39.0901C18.2791 39.0901 17.1555 40.3971 17.1555 41.9907C17.1555 43.5728 18.2791 44.9027 20.1198 44.9027ZM20.1198 43.8365C19.056 43.8365 18.4584 42.9767 18.4584 41.9907C18.4584 41.0162 19.056 40.1564 20.1198 40.1564C21.1956 40.1564 21.7812 41.0162 21.7812 41.9907C21.7812 42.9767 21.1956 43.8365 20.1198 43.8365Z" fill="#29B473"/>
<path d="M26.1108 44.9027C27.6647 44.9027 28.5133 44.1576 28.5133 43.1715C28.5133 40.9704 25.0231 41.7041 25.0231 40.7296C25.0231 40.3398 25.4294 40.0417 26.0868 40.0417C26.816 40.0417 27.4495 40.3398 27.7962 40.7067L28.3221 39.8583C27.8081 39.4226 27.067 39.0901 26.0868 39.0901C24.6286 39.0901 23.8158 39.8583 23.8158 40.7641C23.8158 42.8964 27.3061 42.1168 27.3061 43.206C27.3061 43.6416 26.9117 43.9397 26.1586 43.9397C25.4175 43.9397 24.6167 43.5728 24.2103 43.1715L23.6366 44.0314C24.2342 44.5932 25.1187 44.9027 26.1108 44.9027Z" fill="#29B473"/>
<path d="M30.159 38.5514C30.5893 38.5514 30.9359 38.2189 30.9359 37.8062C30.9359 37.3935 30.5893 37.061 30.159 37.061C29.7287 37.061 29.382 37.3935 29.382 37.8062C29.382 38.2189 29.7287 38.5514 30.159 38.5514ZM30.7806 44.7651V39.2277H29.5255V44.7651H30.7806Z" fill="#29B473"/>
<path d="M33.9147 44.9027C34.4884 44.9027 34.859 44.7422 35.0861 44.5473L34.7873 43.6301C34.6917 43.7334 34.4765 43.8365 34.2374 43.8365C33.8789 43.8365 33.6876 43.5499 33.6876 43.1715V40.271H34.859V39.2277H33.6876V37.7144H32.4325V39.2277H31.4763V40.271H32.4325V43.4697C32.4325 44.3982 32.9345 44.9027 33.9147 44.9027Z" fill="#29B473"/>
<path d="M38.3651 44.9027C40.2059 44.9027 41.3295 43.5728 41.3295 41.9907C41.3295 40.3971 40.2059 39.0901 38.3651 39.0901C36.5244 39.0901 35.4008 40.3971 35.4008 41.9907C35.4008 43.5728 36.5244 44.9027 38.3651 44.9027ZM38.3651 43.8365C37.3013 43.8365 36.7037 42.9767 36.7037 41.9907C36.7037 41.0162 37.3013 40.1564 38.3651 40.1564C39.4409 40.1564 40.0266 41.0162 40.0266 41.9907C40.0266 42.9767 39.4409 43.8365 38.3651 43.8365Z" fill="#29B473"/>
<path d="M43.627 44.7651V40.9933C43.878 40.592 44.5833 40.2481 45.1212 40.2481C45.2765 40.2481 45.3961 40.2595 45.5037 40.2826V39.0901C44.7625 39.0901 44.0693 39.5029 43.627 40.0303V39.2277H42.372V44.7651H43.627Z" fill="#29B473"/>
<path d="M46.0376 46.932C46.2049 46.9779 46.5636 47.0122 46.7429 47.0122C47.6393 47.0007 48.3207 46.7027 48.7151 45.7626L51.5001 39.2277H50.1614L48.4761 43.3779L46.7907 39.2277H45.4401L47.8187 44.8339L47.5318 45.4645C47.3644 45.8313 47.1014 45.946 46.695 45.946C46.5516 45.946 46.3485 45.9116 46.217 45.8542L46.0376 46.932Z" fill="#29B473"/>
</g>
<defs>
<clipPath id="clip0_372_9823">
<rect width="51" height="46.0244" fill="white" transform="translate(0.500122 0.987793)"/>
</clipPath>
</defs>
</svg>
