<svg width="69" height="40" viewBox="0 0 69 40" fill="none" xmlns="http://www.w3.org/2000/svg">
<g clip-path="url(#clip0_126_12273)">
<path d="M32.2119 0.206215C32.6287 -0.0882443 32.9966 -0.0384126 33.4382 0.206215L37.1416 2.33538C37.2639 2.40878 37.4851 2.35986 37.6083 2.31092L41.2329 0.206215C41.6496 -0.0384126 41.993 -0.0882443 42.4106 0.181753L47.9769 3.39454C48.3692 3.61516 48.5409 3.90962 48.5409 4.3504V10.8249C48.5409 11.2416 48.3936 11.5117 48.0258 11.7323L44.7396 13.6213C45.5243 14.2592 45.5243 14.2592 45.5243 15.2644V21.3222C45.5243 21.7145 45.377 21.9351 45.0336 22.1317L33.581 28.7534C33.0419 29.0724 32.6491 29.0724 32.1096 28.7534L20.6555 22.1317C20.2886 21.9356 20.1409 21.6411 20.1409 21.2488V7.7598C20.1409 7.36749 20.288 7.09749 20.6315 6.90133L32.2119 0.206215ZM32.1874 15.2644C32.1874 14.9945 32.1141 14.8477 31.893 14.7253L21.4166 8.71566V20.7083C21.4166 21.0028 21.5148 21.1495 21.7599 21.2972L32.134 27.277L32.1874 15.2644ZM43.8617 21.2732C44.1063 21.1261 44.2051 21.0033 44.2051 20.7092L44.1806 15.6816L39.3243 18.4528C38.6375 18.8451 38.1718 18.5751 38.1718 17.7905V12.6397C38.1718 12.5173 38.1718 12.3696 38.1473 12.1985L33.7327 14.7489C33.512 14.8713 33.4627 15.0434 33.4627 15.264V27.2816L43.8617 21.2732ZM32.5263 13.6218C32.6034 13.6818 32.6984 13.7144 32.796 13.7144C32.8938 13.7144 32.9888 13.6818 33.0659 13.6218L35.6164 12.1505L37.48 11.0469L36.8422 10.6791L32.5259 8.17748C31.9868 7.85855 31.9868 7.27008 32.5259 6.95116L34.7819 5.65101C35.0265 5.5287 35.1497 5.35655 35.1008 5.08701C35.0764 4.96469 35.1008 4.86639 35.1008 4.74362C35.0274 4.10577 35.1253 3.56577 35.812 3.29669C35.8365 3.29669 35.861 3.24776 35.8854 3.19838L33.0405 1.55529C32.7958 1.40806 32.6482 1.43298 32.4275 1.55529L22.1029 7.56364L32.5263 13.6218ZM46.5304 4.10577C46.432 4.03239 46.408 4.00747 46.3831 4.00747L42.0424 1.50592C41.971 1.47995 41.895 1.46873 41.8192 1.47293C41.7434 1.47714 41.6692 1.49669 41.6011 1.53038L37.7505 3.73748L37.1616 4.08086C37.2598 4.12978 37.2838 4.15425 37.3088 4.17916L41.6496 6.68072C41.7479 6.72964 41.9686 6.70518 42.0908 6.65625L43.9545 5.60163L46.5295 4.10577H46.5304ZM46.997 10.7769C47.1193 10.7035 47.1932 10.5069 47.1932 10.3601C47.2176 8.79041 47.1932 7.22071 47.1932 5.62609C47.1932 5.52778 47.1687 5.42994 47.1687 5.33163H47.0464L42.7056 7.85765C42.5832 7.93104 42.5094 8.12764 42.5094 8.27442V13.3514L46.997 10.7769ZM36.4703 5.25825V8.61826C36.4703 8.86289 36.5686 9.01058 36.7648 9.10887L39.0706 10.433C39.3895 10.6052 39.5118 10.8498 39.5118 11.1932V12.1745C39.5118 12.2727 39.5363 12.4191 39.6101 12.4689C40.1008 12.7878 40.6158 13.0578 41.1549 13.3763C41.1793 13.2539 41.2038 13.2041 41.2038 13.1557V8.20149C41.2038 8.07917 41.0815 7.90703 40.9592 7.83364L36.4703 5.25825ZM39.5358 13.9652V16.8346L43.4598 14.5536C43.4354 14.5047 43.4109 14.4554 43.3864 14.4314C43.2881 14.4558 43.1903 14.5047 43.1165 14.5296C42.8465 14.6769 42.5774 14.8241 42.3318 14.9963C42.0129 15.2169 41.694 15.2169 41.3506 15.0207C40.7617 14.6529 40.1488 14.3339 39.5358 13.9662V13.9652ZM34.1159 7.56409C34.4838 7.78471 34.7783 7.95641 35.0972 8.1281V6.97563C34.7783 7.19625 34.4843 7.36794 34.1159 7.56454V7.56409Z" fill="black"/>
<path d="M62.0351 39.1746V36.7784L63.0673 35.7277L65.6848 39.1746H67.823L64.2655 34.5111L67.7308 30.9168H65.5189L62.0351 34.6033V30.9168H60.2841V39.1746H62.0351ZM57.9983 36.6862C57.3532 37.2945 56.7633 37.6631 55.8602 37.6631C54.4777 37.6631 53.4454 36.5387 53.4454 35.0272C53.4454 33.5527 54.4777 32.4283 55.8602 32.4283C56.6159 32.4283 57.2426 32.7231 57.943 33.3499L58.0905 33.4789L59.2333 32.1702L59.1043 32.0412C58.4408 31.4144 57.5375 30.7693 55.897 30.7693C53.4639 30.7693 51.639 32.5941 51.639 35.0457C51.639 37.4235 53.4823 39.2853 55.8417 39.2853C57.2057 39.2853 58.2011 38.8428 59.178 37.8291L59.307 37.7001L58.1643 36.5387L57.9983 36.6862ZM46.4041 30.8615L42.7728 39.1746H44.5977L45.4087 37.2761H47.6391L48.229 35.7093L49.7036 39.1746H51.5653L47.934 30.8615H46.4041ZM46.0723 35.6725L47.1414 33.184L48.2105 35.6725H46.0723ZM43.4733 32.5757V30.9168H36.7085V32.5757H39.1969V39.1746H40.9664V32.5757H43.4733ZM33.5011 34.2346C31.9528 33.866 31.7684 33.608 31.7684 33.1471C31.7684 32.7048 32.2108 32.3913 32.8744 32.3913C33.538 32.3913 34.2016 32.6494 34.902 33.1656L35.0495 33.2762L36.008 31.9305L35.8789 31.82C35.0126 31.1195 34.0357 30.7877 32.9112 30.7877C31.2154 30.7877 30.0358 31.8015 30.0358 33.2762C30.0358 34.8429 31.0495 35.3775 32.8007 35.8015C34.3306 36.1516 34.4412 36.4466 34.4412 36.8522C34.4412 37.3498 33.9619 37.6631 33.2246 37.6631C32.3583 37.6631 31.6393 37.3683 30.8468 36.6862L30.6993 36.5572L29.6302 37.8291L29.7592 37.9396C30.7177 38.806 31.8975 39.2484 33.1693 39.2484C34.9942 39.2484 36.1739 38.253 36.1739 36.6862C36.1739 35.101 34.8836 34.5664 33.5011 34.2346ZM22.4967 30.9168V32.1149H25.151V39.1746H26.4229V32.1149H29.0588V30.9168H22.4967ZM17.2249 30.9168V39.1746H22.9207V37.9766H18.4783V30.9168H17.2249ZM11.308 30.8615L7.54769 39.1746H8.87485L9.81493 37.0917H13.0038L13.3909 36.0226L14.7918 39.1746H16.1559L12.3956 30.8615H11.308ZM10.3126 35.9121L11.8241 32.5204L13.3172 35.9121H10.3126ZM4.32194 34.4374C2.47866 34.0319 2.33119 33.608 2.33119 33.0549C2.33119 32.4098 2.93948 31.9674 3.82426 31.9674C4.61686 31.9674 5.29889 32.2255 5.9809 32.7784L6.12836 32.9075L6.86567 31.9305L6.71821 31.82C5.83343 31.1195 4.96709 30.8061 3.82426 30.8061C2.2206 30.8061 1.05933 31.7831 1.05933 33.1656C1.05933 34.6954 2.18374 35.2669 3.84269 35.6171C5.61224 35.9858 5.74127 36.4097 5.74127 36.9627C5.74127 37.6631 5.11456 38.124 4.17448 38.124C3.1791 38.124 2.44179 37.8106 1.59388 37.0549L1.44642 36.9259L0.653809 37.8659L0.78284 37.9949C1.77821 38.8797 2.84732 39.3036 4.13761 39.3036C5.83344 39.3036 7.01313 38.3084 7.01313 36.8705C7.05 35.5803 6.23896 34.8429 4.32194 34.4374Z" fill="black"/>
</g>
<defs>
<clipPath id="clip0_126_12273">
<rect width="67.6923" height="40" fill="white" transform="translate(0.653809)"/>
</clipPath>
</defs>
</svg>
